{
  "model": "qa/instructors/me/courseOutlines",
  "settings": {
    "defaultLocale": "el",
    "i18n": {
      "el": {
        "1. GENERAL": "1. ΓΕΝΙΚΑ",
        "Course Title": "Τίτλος Μαθήματος",
        "Level of Studies": "Επίπεδο Σπουδών",
        "Semester": "Εξάμηνο",
        "Course Type": "Τύπος Μαθήματος",
        "Background, General Knowledge, Scientific Area, Skill Development": "Υποβάθρου , Γενικών Γνώσεων, Επιστημονικής Περιοχής, Ανάπτυξης Δεξιοτήτων",
        "TEACHING ACTIVITIES": "ΑΥΤΟΤΕΛΕΙΣ ΔΙΔΑΚΤΙΚΕΣ ΔΡΑΣΤΗΡΙΟΤΗΤΕΣ",
        "Teaching Hours Per Week": "Εβδομαδιαίες 'Ωρες Διδασκαλίας",
        "Ects Credits": "Μονάδες ECTS",
        "Prerequisites": "Προαπαιτούμενα Μαθήματα",
        "Teaching & Examination Language": "Γλώσσα Διδασκαλίας και Εξετάσεων",
        "<br><h5>Teaching & Examination Language</h5><p style='color:grey;'>Choose the languages in which this course is taught and examined.</p>": "<br><h5>Γλώσσα Διδασκαλίας και Εξετάσεων</h5><p style='color:grey;'>Επιλέξτε τις γλώσσες στις οποίες διδάσκεται και εξετάζεται το μάθημα.</p>",
        "Language": "Γλώσσα",
        "Teaching": "Διδασκαλία",
        "Exams": "Εξετάσεις",
        "Course offered to erasmus students": "Το μάθημα προσφέρεται σε φοιτητές Erasmus",
        "E-study": "Ηλεκτρονική Διάθεση Μαθήματος",
        "<br><h5>E-study</h5><p style='color:grey;'>Choose the available e-study methods for this course and fill in the corresponding URLs.</p>": "<br><h5>Ηλεκτρονική Διάθεση Μαθήματος</h5><p style='color:grey;'>Επιλέξτε τους διαθέσιμους τύπους ηλεκτρονικής διάθεσης του μαθήματος και συμπληρώστε τις αντίστοιχες ηλεκτρονικές διευθύνσεις.</p>",
        "Type": "Τύπος",
        "URL": "Ηλεκτρονική διεύθυνση",
        "2. LEARNING OUTCOMES": "2. ΜΑΘΗΣΙΑΚΑ ΑΠΟΤΕΛΕΣΜΑΤΑ",
        "Learning Outcomes": "Μαθησιακά Αποτελέσματα",
        "Please describe the learning outcomes of the course: Knowledge, skills and abilities acquired after the successful completion of the course.": "Περιγράψτε τα μαθησιακά αποτελέσματα του μαθήματος, τις συγκεκριμένες  γνώσεις, δεξιότητες και ικανότητες καταλλήλου επιπέδου που θα αποκτήσουν οι φοιτητές μετά την επιτυχή ολοκλήρωση του μαθήματος.",
        "General Skills": "Γενικές Ικανότητες",
        "<br><p>General Skills</p><p style='color:grey;'>Name the desirable general skills upon successful completion of the module.</p>": "<br><p>Γενικές Ικανότητες</p><p style='color:grey;'>Λαμβάνοντας υπόψη τις γενικές ικανότητες που πρέπει να έχει αποκτήσει ο πτυχιούχος (όπως αυτές αναγράφονται στο Παράρτημα Διπλώματος και παρατίθενται ακολούθως) σε ποια / ποιες από αυτές αποσκοπεί το μάθημα;</p>",
        "Skill": "Ικανότητα",
        "3. COURSE CONTENT": "3. ΠΕΡΙΕΧΟΜΕΝΟ ΜΑΘΗΜΑΤΟΣ",
        "Course Content": "Περιεχόμενο Μαθήματος",
        "Please describe the course's learning outcomes": "Περιγράψτε τα μαθησιακά αποτελέσματα του μαθήματος",
        "Please describe the course's content": "Περιγράψτε το περιεχόμενο του μαθήματος.",
        "4. LEARNING & TEACHING METHODS - EVALUATION": "4. ΔΙΔΑΚΤΙΚΕΣ ΚΑΙ ΜΑΘΗΣΙΑΚΕΣ ΜΕΘΟΔΟΙ - ΑΞΙΟΛΟΓΗΣΗ",
        "Teaching Method": "Τρόπος Παράδοσης",
        "Use of Information & Communications Technology (Ict)": "Χρήση Τεχνολογιών Πληροφορίας και Επικοινωνιών",
        "TeachingOrganization": "Οργάνωση Διδασκαλίας",
        "TeachingOrganizationDesc": "Περιγράφονται αναλυτικά ο τρόπος και μέθοδοι διδασκαλίας. Αναγράφονται οι ώρες μελέτης του φοιτητή για κάθε μαθησιακή δραστηριότητα καθώς και οι ώρες μη καθοδηγούμενης μελέτης ώστε ο συνολικός φόρτος εργασίας σε επίπεδο εξαμήνου να αντιστοιχεί στα standards του ECTS.",
        "Activity": "Δραστηριότητα",
        "Workload/semester": "Φόρτος εργασίας εξαμήνου",
        "TeachingOrganizationNote": "Σημείωση: Μία (1) πιστωτική μονάδα αντιστοιχεί σε είκοσι πέντε (25) έως τριάντα (30) ώρες εργασίας.",
        "Student Evaluation": "Αξιολόγηση Φοιτητών",
        "<br><h5>Student Evaluation</h5><p style='color:grey;'>Description of the evaluation process: Assessment Language and Assessment Methods.</p>": "<br><h5>Αξιολόγηση Φοιτητών</h5><p style='color:grey;'>Περιγραφή της διαδικασίας αξιολόγησης: Γλώσσα Αξιολόγησης και Μέθοδοι αξιολόγησης</p>",
        "Method": "Μέθοδος",
        "Student Evaluation Languages": "Γλώσσες Αξιολόγησης Φοιτητών",
        "Student Evaluation Manners": "Τρόποι Αξιολόγησης Φοιτητών",
        "Manner": "Tρόπος",
        "Percentage": "Ποσοστό",
        "Individual percentages must add up to 100.": "Τα επιμέρους ποσοστά πρέπει να δίνουν άθροισμα 100.",
        "5. SUGGESTED BIBLIOGRAPHY": "5. ΠΡΟΤΕΙΝΟΜΕΝΗ ΒΙΒΛΙΟΓΡΑΦΙΑ",
        "Suggested Bibliography": "Προτεινόμενη Βιβλιογραφία",
        "Fill in the suggested bibliography": "Συμπληρώστε την προτεινόμενη βιβλιογραφία.",
        "Eudoxus": "Εύδοξος",
        "Fill in the available books in Eudoxus": "Συμπληρώστε τα βιβλία που είναι διαθέσιμα στον Εύδοξο",
        "Field": "Το πεδίο",
        "Add another": "Προσθήκη",
        "Submission Complete.": "Η υποβολή ολοκληρώθηκε με επιτυχία.",
        "<p>The ways and methods of teaching are described in detail.The supervised and unsupervised workload per activity is indicated here, so that total workload per semester complies to ECTS standards</p>": "<p>Περιγράφονται αναλυτικά ο τρόπος και μέθοδοι διδασκαλίας. Αναγράφονται οι ώρες μελέτης του φοιτητή για κάθε μαθησιακή δραστηριότητα καθώς και οι ώρες μη καθοδηγούμενης μελέτης ώστε ο συνολικός φόρτος εργασίας σε επίπεδο εξαμήνου να αντιστοιχεί στα standards του ECTS.</p>",
        "The data 'Weekly Teaching Hours' and 'ECTS Units' are drawn from the information system of the secretariats. Contact the secretariat so they can be filled out.": "Τα στοιχεία 'Εβδομαδιαίες Ώρες Διδασκαλίας' και 'Μονάδες ECTS' αντλούνται από το πληροφοριακό σύστημα των γραμματειών. Επικοινωνήστε με την γραμματεία ώστε να συμπληρωθούν.",
        "The name of the school, course and department in English are drawn from the information system of the secretariats. Contact the secretariat to fill it out if necessary." : "Η ονομασία της σχολής του μαθήματος και του τμήματος στην αγγλική γλώσσα αντλούνται από το πληροφοριακό σύστημα των γραμματειών. Σε περίπτωση που κάποιο λείπει και πρέπει να συμπληρωθεί, επικοινωνήστε με την γραμματεία.",
        "The name of the school is retrieved from the information system of the secretariats. Contact the secretariat to fill it out if necessary.": "Η ονομασία της σχολής αντλείται από το πληροφοριακό σύστημα των γραμματειών. Σε περίπτωση που πρέπει να συμπληρωθεί, επικοινωνήστε με την γραμματεία.",
        "OTHER LANGUAGES": "ΑΛΛΕΣ ΓΛΩΣΣΕΣ",
        "OTHER LANGUAGES OF DEPARTMENTS": "ΑΛΛΕΣ ΓΛΩΣΣΕΣ ΤΜΗΜΑΤΟΣ",
        "en": "Αγγλικά"
      },
      "en": {
        "Language": "Language",
        "en": "English",
        "TeachingOrganization": "Teaching Organization",
        "TeachingOrganizationDesc": "The ways and methods of teaching are described in detail.The supervised and unsupervised workload per activity is indicated here, so that total workload per semester complies to ECTS standards.",
        "TeachingOrganizationNote": "Note: One (1) ECTS unit corresponds to more than twenty five (25) and up to (30) workload hours."
      }
    }
  },
  "components": [
    {
      "type": "button",
      "label": "Submit",
      "key": "submit",
      "input": false,
      "tableView": false
    },
    {
      "collapsible": true,
      "legend": "test",
      "title": "1. GENERAL",
      "key": "panel",
      "type": "panel",
      "label": "Panel",
      "input": false,
      "tableView": false,
      "collapsed": false,
      "components": [
        {
          "label": "Coursclass id",
          "key": "courseClass.id",
          "type": "hidden",
          "input": true,
          "tableView": false
        },
        {
          "label": "Columns",
          "columns": [
            {
              "components": [
                {
                  "label": "Faculty Name",
                  "autoExpand": false,
                  "tableView": true,
                  "key": "courseClass.department.facultyName",
                  "type": "textfield",
                  "input": true,
                  "disabled": true
                }
              ],
              "width": 4
            },

            {
              "components": [
                {
                  "label": "Department Name",
                  "autoExpand": false,
                  "tableView": true,
                  "key": "courseClass.department.name",
                  "type": "textfield",
                  "input": true,
                  "disabled": true
                }
              ],
              "width": 4
            },
            {
              "components": [
                {
                  "label": "Course Title",
                  "autoExpand": false,
                  "tableView": true,
                  "key": "courseClass.title",
                  "type": "textfield",
                  "input": true,
                  "disabled": true
                }
              ],
              "width": 4
            },
            {
              "components": [
                {
                  "input": false,
                  "html": "The name of the school is retrieved from the information system of the secretariats. Contact the secretariat to fill it out if necessary.",
                  "type": "content",
                  "customClass": "text-danger",
                  "customConditional": "show = data && data.courseClass && data.courseClass.department.facultyName && !data.courseClass.department.facultyName.length;"
                }
              ],
              "width": 12
            },
            {
              "components": [
                {
                  "label": "Course Type",
                  "widget": "choicesjs",
                  "tableView": true,
                  "dataSrc": "url",
                  "data": {
                    "url": "qa/specificCourseCategories/?$select=id,name,alternateName&$expand=locale",
                    "headers": []
                  },
                  "validate": {
                    "required": true
                  },
                  "errorLabel": "Field",
                  "selectThreshold": 0.3,
                  "template": "<span class='d-block pr-5 text-truncate'>{{ (item.locale && item.locale.name) || item.name}}</span>",
                  "key": "specificCourseCategory.id",
                  "selectValues": "value",
                  "valueProperty": "id",
                  "lazyLoad": false,
                  "type": "select",
                  "indexeddb": {
                    "filter": {}
                  },
                  "input": true
                }
              ],
              "width": 4
            },
            {
              "components": [
                {
                  "label": "Level of Studies",
                  "widget": "choicesjs",
                  "tableView": true,
                  "dataSrc": "url",
                  "data": {
                    "url": "qa/EducationClassifications/?$select=id,name,alternateName&$expand=locale",
                    "headers": []
                  },
                  "validate": {
                    "required": true
                  },
                  "useExactSearch": true,
                  "selectThreshold": 0.3,
                  "template": "<span class='d-block pr-5 text-truncate'>{{ (item.locale && item.locale.name) || item.name }}</span>",
                  "key": "educationClassification",
                  "selectValues": "value",
                  "valueProperty": "id",
                  "lazyLoad": false,
                  "type": "select",
                  "indexeddb": {
                    "filter": {}
                  },
                  "input": true,
                  "hideOnChildrenHidden": false
                }
              ],
              "width": 6
            },
            {
              "components": [
                {
                  "label": "Semester",
                  "widget": "choicesjs",
                  "tableView": true,
                  "dataSrc": "url",
                  "data": {
                    "url": "Semesters/?$select=id,name,alternateName",
                    "headers": []
                  },
                  "validate": {
                    "required": true
                  },
                  "valueProperty": "id",
                  "template": "<span class='d-block pr-5 text-truncate'>{{ item.name }}</span>",
                  "useExactSearch": true,
                  "key": "semester",
                  "type": "select",
                  "lazyLoad": false,
                  "selectValues": "value",
                  "disableLimit": false,
                  "input": true,
                  "hideOnChildrenHidden": false
                }
              ],
              "width": 2
            }
          ],
          "type": "columns",
          "input": false
        },
        {
          "columns": [
            {
              "components": [
                {
                  "label": "Teaching Hours Per Week",
                  "tableView": true,
                  "key": "courseClass.weekHours",
                  "type": "number",
                  "input": true,
                  "hideOnChildrenHidden": false,
                  "validate": {
                    "required": false
                  },
                  "disabled": true
                }
              ],
              "width": 2
            },
            {
              "components": [
                {
                  "label": "Ects Credits",
                  "tableView": true,
                  "validate": {
                    "required": false
                  },
                  "key": "courseClass.course.ects",
                  "type": "number",
                  "input": true,
                  "hideOnChildrenHidden": false,
                  "disabled": true
                }
              ],
              "width": 2
            },
            {
              "components": [
                {
                  "input": false,
                  "html": "The data 'Weekly Teaching Hours' and 'ECTS Units' are drawn from the information system of the secretariats. Contact the secretariat so they can be filled out.",
                  "type": "content",
                  "customClass": "text-danger mb-4",
                  "customConditional": "const ects = _.get(data, 'courseClass.course.ects'), weekHours = _.get(data, 'courseClass.weekHours');show = ects !==undefined && weekHours !==undefined && !((typeof ects === 'number' && ects >= 0 ) && (typeof weekHours === 'number' && weekHours>= 0 ));"
                }
              ],
              "width": 12
            }
          ],
          "type": "columns",
          "input": false
        },
        {
          "label": "Columns",
          "columns": [
            {
              "components": [
                {
                  "label": "Prerequisites",
                  "autoExpand": false,
                  "tableView": true,
                  "key": "prerequisites",
                  "type": "textarea",
                  "input": true
                }
              ],
              "width": 6
            },
            {
              "components": [
                {
                  "input": false,
                  "html": "<br><h5>Teaching & Examination Language</h5><p style='color:grey;'>Choose the languages in which this course is taught and examined.</p>",
                  "type": "content"
                },
                {
                  "label": "Teaching & Examination Language",
                  "hideLabel": true,
                  "reorder": false,
                  "addAnother": "Add another",
                  "addAnotherPosition": "bottom",
                  "defaultOpen": false,
                  "layoutFixed": false,
                  "enableRowGroups": false,
                  "tableView": false,
                  "defaultValue": [
                    {}
                  ],
                  "key": "courseLanguages",
                  "type": "datagrid",
                  "customClass": "border-0",
                  "input": true,
                  "components": [
                    {
                      "columns": [
                        {
                          "components": [
                            {
                              "label": "Language",
                              "widget": "choicesjs",
                              "hideLabel": true,
                              "tableView": false,
                              "dataSrc": "url",
                              "data": {
                                "url": "qa/TeachingLanguages/?$select=id,name,alternateName&$expand=locale",
                                "headers": []
                              },
                              "validate": {
                                "required": true
                              },
                              "errorLabel": "Field",
                              "useExactSearch": true,
                              "selectThreshold": 0.3,
                              "template": "<span class='d-block pr-5 text-truncate'>{{ (item.locale && item.locale.name) || item.name }}</span>",
                              "key": "language.id",
                              "selectValues": "value",
                              "valueProperty": "id",
                              "lazyLoad": false,
                              "type": "select",
                              "indexeddb": {
                                "filter": {}
                              },
                              "input": true,
                              "hideOnChildrenHidden": false
                            }
                          ],
                          "width": 5
                        },
                        {
                          "components": [],
                          "width": 1
                        },
                        {
                          "components": [
                            {
                              "label": "Teaching",
                              "tableView": false,
                              "defaultValue": false,
                              "key": "teaching",
                              "type": "checkbox",
                              "input": true,
                              "hideOnChildrenHidden": false
                            }
                          ],
                          "width": 3
                        },
                        {
                          "components": [
                            {
                              "label": "Exams",
                              "tableView": false,
                              "key": "examination",
                              "type": "checkbox",
                              "input": true,
                              "defaultValue": false,
                              "hideOnChildrenHidden": false
                            }
                          ],
                          "width": 3
                        }
                      ],
                      "type": "columns",
                      "input": false
                    }
                  ]
                }
              ],
              "width": 8
            },
            {
              "components": [
                {
                  "input": false,
                  "html": "<br><h5>E-study</h5><p style='color:grey;'>Choose the available e-study methods for this course and fill in the corresponding URLs.</p>",
                  "type": "content"
                },
                {
                  "label": "E-study",
                  "hideLabel": true,
                  "reorder": false,
                  "addAnother": "Add another",
                  "addAnotherPosition": "bottom",
                  "defaultOpen": false,
                  "layoutFixed": false,
                  "enableRowGroups": false,
                  "tableView": false,
                  "key": "courseDigitalContents",
                  "type": "datagrid",
                  "customClass": "border-0",
                  "input": true,
                  "components": [
                    {
                      "columns": [
                        {
                          "components": [
                            {
                              "label": "Type",
                              "widget": "choicesjs",
                              "tableView": true,
                              "dataSrc": "url",
                              "data": {
                                "url": "qa/eStudyGuideTypes/?$select=id,name,alternateName&$expand=locale",
                                "headers": []
                              },
                              "validate": {
                                "required": true
                              },
                              "errorLabel": "Field",
                              "useExactSearch": true,
                              "selectThreshold": 0.3,
                              "template": "<span class='d-block pr-5 text-truncate'>{{ (item.locale && item.locale.name) || item.name }}</span>",
                              "key": "eStudyGuideType.id",
                              "selectValues": "value",
                              "valueProperty": "id",
                              "lazyLoad": false,
                              "type": "select",
                              "indexeddb": {
                                "filter": {}
                              },
                              "input": true,
                              "hideOnChildrenHidden": false
                            }
                          ],
                          "width": 5
                        },
                        {
                          "components": [],
                          "width": 1
                        },
                        {
                          "components": [
                            {
                              "label": "URL",
                              "tableView": true,
                              "key": "url",
                              "type": "textfield",
                              "input": true,
                              "hideOnChildrenHidden": false,
                              "validate": {
                                "required": true
                              }
                            }
                          ],
                          "width": 6
                        }
                      ],
                      "type": "columns",
                      "input": false
                    }
                  ]
                }
              ],
              "width": 8
            }
          ],
          "type": "columns",
          "input": false
        },
        {
          "label": "Erasmus",
          "description": "Course offered to erasmus students",
          "tableView": false,
          "key": "erasmus",
          "type": "checkbox",
          "input": true,
          "defaultValue": false,
          "errorLabel": "Field"
        }
      ]
    },
    {
      "collapsible": true,
      "title": "2. LEARNING OUTCOMES",
      "key": "panel",
      "type": "panel",
      "label": "Panel",
      "input": false,
      "tableView": false,
      "collapsed": false,
      "components": [
        {
          "label": "Columns",
          "columns": [
            {
              "components": [
                {
                  "reorder": false,
                  "label": "Learning Outcomes",
                  "placeholder": "Please describe the learning outcomes of the course: Knowledge, skills and abilities acquired after the successful completion of the course.",
                  "labelPosition": "top",
                  "autoExpand": true,
                  "tableView": true,
                  "key": "learningOutcome",
                  "type": "textarea",
                  "input": true,
                  "rows": 5,
                  "defaultOpen": false,
                  "layoutFixed": false,
                  "enableRowGroups": false,
                  "initEmpty": true,
                  "defaultValue": [
                    {}
                  ],
                  "validate": {
                    "required": true
                  }
                }
              ],
              "width": 12
            },
            {
              "components": [
                {
                  "input": false,
                  "html": "<br><p>General Skills</p><p style='color:grey;'>Name the desirable general skills upon successful completion of the module.</p>",
                  "type": "content"
                },
                {
                  "label": "General Skills",
                  "hideLabel": true,
                  "tooltip": "Name the desirable general skills upon successful completion of the module",
                  "reorder": false,
                  "addAnother": "Add another",
                  "addAnotherPosition": "bottom",
                  "defaultOpen": false,
                  "layoutFixed": false,
                  "enableRowGroups": false,
                  "tableView": false,
                  "defaultValue": [
                    {}
                  ],
                  "key": "generalSkills",
                  "type": "datagrid",
                  "customClass": "border-0",
                  "input": true,
                  "components": [
                    {
                      "label": "Skill",
                      "hideLabel": true,
                      "widget": "choicesjs",
                      "customClass": "datagrid-select",
                      "tableView": true,
                      "dataSrc": "url",
                      "data": {
                        "url": "qa/GeneralSkillTypes/?$select=id,name,alternateName&$expand=locale",
                        "headers": []
                      },
                      "validate": {
                        "required": true
                      },
                      "errorLabel": "Field",
                      "useExactSearch": true,
                      "selectThreshold": 0.3,
                      "template": "<span class='d-block pr-5 text-truncate'>{{ (item.locale && item.locale.name) || item.name}}</span>",
                      "key": "id",
                      "selectValues": "value",
                      "valueProperty": "id",
                      "lazyLoad": false,
                      "type": "select",
                      "indexeddb": {
                        "filter": {}
                      },
                      "input": true,
                      "hideOnChildrenHidden": false
                    }
                  ]
                }
              ],
              "width": 6
            }
          ],
          "type": "columns",
          "input": false
        }
      ]
    },
    {
      "collapsible": true,
      "title": "3. COURSE CONTENT",
      "key": "panel",
      "type": "panel",
      "label": "Panel",
      "input": false,
      "tableView": false,
      "collapsed": false,
      "components": [
        {
          "reorder": false,
          "label": "Περιεχόμενο μαθήματος",
          "hideLabel": true,
          "placeholder": "Please describe the course's content",
          "labelPosition": "top",
          "autoExpand": true,
          "tableView": true,
          "key": "content",
          "type": "textarea",
          "input": true,
          "rows": 5,
          "defaultOpen": false,
          "layoutFixed": false,
          "enableRowGroups": false,
          "validate": {
            "required": true
          }
        }
      ]
    },
    {
      "collapsible": true,
      "title": "4. LEARNING & TEACHING METHODS - EVALUATION",
      "key": "panel",
      "type": "panel",
      "label": "Panel",
      "input": false,
      "tableView": false,
      "collapsed": false,
      "components": [
        {
          "label": "Columns",
          "columns": [
            {
              "components": [
                {
                  "label": "Teaching Method",
                  "multiple": true,
                  "dataSrc": "url",
                  "data": {
                    "url": "qa/teachingMethodTypes/?$select=id,name&$expand=locale",
                    "headers": []
                  },
                  "validate": {
                    "required": true
                  },
                  "dataType":"object",
                  "template": "<span>{{(item.locale && item.locale.name) || item.name}}</span>",
                  "selectValues": "value",
                  "key": "teachingMethods",
                  "lazyLoad": false,
                  "type": "select",
                  "input": true,
                  "tableView": true
                }
              ],
              "width": 6
            },
            {
              "components": [],
              "width": 6
            },
            {
              "components": [
                {
                  "label": "Use of Information & Communications Technology (Ict)",
                  "multiple": true,
                  "dataSrc": "url",
                  "data": {
                    "url": "qa/useIctTypes/?$select=id,name&$expand=locale",
                    "headers": []
                  },
                  "validate": {
                    "required": true
                  },
                  "dataType": "object",
                  "template": "<span>{{(item.locale && item.locale.name) || item.name}}</span>",
                  "selectValues": "value",
                  "key": "ictTypes",
                  "lazyLoad": false,
                  "type": "select",
                  "input": true
                }
              ],
              "width": 6
            },
            {
              "components": [],
              "width": 6
            },
            {
              "label":"test",
              "components": [
                {
                  "input": false,
                  "html": "<br><h5>{{instance.t('TeachingOrganization')}}</h5><p style='color:grey;'> {{instance.t('TeachingOrganizationDesc')}}<br><br>{{instance.t('TeachingOrganizationNote')}}</p>",
                  "type": "content",
                  "refreshOn": "locales"
                },
                {
                  "label": "Teaching Organization",
                  "hideLabel": true,
                  "reorder": false,
                  "addAnother": "Add another",
                  "addAnotherPosition": "bottom",
                  "defaultOpen": false,
                  "layoutFixed": false,
                  "enableRowGroups": false,
                  "tableView": false,
                  "defaultValue": [
                    {}
                  ],
                  "key": "teachingStructureTypes",
                  "type": "datagrid",
                  "customClass": "border-0",
                  "input": true,
                  "components": [
                    {
                      "columns": [
                        {
                          "components": [
                            {
                              "label": "Activity",
                              "widget": "choicesjs",
                              "tableView": true,
                              "dataSrc": "url",
                              "data": {
                                "url": "qa/teachingLearningTypes/?$select=id,name,alternateName&$expand=locale",
                                "headers": []
                              },
                              "validate": {
                                "required": true
                              },
                              "errorLabel": "Field",
                              "useExactSearch": true,
                              "selectThreshold": 0.3,
                              "template": "<span class='d-block pr-5 text-truncate'>{{ (item.locale && item.locale.name) || item.name }}</span>",
                              "key": "teachingLearningType.id",
                              "selectValues": "value",
                              "valueProperty": "id",
                              "lazyLoad": false,
                              "type": "select",
                              "indexeddb": {
                                "filter": {}
                              },
                              "input": true,
                              "hideOnChildrenHidden": false
                            }
                          ],
                          "width": 8
                        },
                        {
                          "components": [
                            {
                              "label": "Workload/semester",
                              "tableView": true,
                              "key": "workLoad",
                              "type": "number",
                              "input": true,
                              "hideOnChildrenHidden": false,
                              "validate": {
                                "required": true
                              }
                            }
                          ],
                          "width": 4
                        }
                      ],
                      "type": "columns",
                      "input": false
                    }
                  ]
                }
              ],
              "width": 7
            }
          ],
          "type": "columns",
          "input": false
        },
        {
          "components": [
            {
              "input": false,
              "html": "<br><h5>Student Evaluation</h5><p style='color:grey;'>Description of the evaluation process: Assessment Language and Assessment Methods.</p>",
              "type": "content"
            },
            {
              "label": "Student Evaluation",
              "tooltip": "Description of the evaluation process: Assessment Language and Assessment Methods",
              "hideLabel": true,
              "input": false,
              "tableView": true,
              "components": [
                {
                  "label": "Columns",
                  "columns": [
                    {
                      "components": [
                        {
                          "label": "Method",
                          "labelPosition": "Top",
                          "tableView": false,
                          "key": "evaluationMethod",
                          "widget": "choicesjs",
                          "dataSrc": "url",
                          "data": {
                            "url": "qa/evaluationMethods/?$select=id,name,alternateName,description&$expand=locale",
                            "headers": []
                          },
                          "validate": {
                            "required": true
                          },
                          "errorLabel": "Field",
                          "useExactSearch": true,
                          "selectThreshold": 0.3,
                          "template": "<span class='d-block pr-5 text-truncate'>{{ (item.locale && item.locale.name) || item.name}}</span>",
                          "selectValues": "value",
                          "dataType": "object",
                          "dataPath": "id",
                          "lazyLoad": false,
                          "type": "select",
                          "indexeddb": {
                            "filter": {}
                          },
                          "input": true,
                          "hideOnChildrenHidden": false
                        }
                      ],
                      "width": 4
                    },
                    {
                      "components": [
                        {
                          "input": false,
                          "html": "<p style='color:grey'>{{data.evaluationMethod.locale && data.evaluationMethod.locale.description || data.evaluationMethod.description}}</p><br>",
                          "type": "content",
                          "refreshOn": "evaluationMethod",
                          "customConditional": "show = data.evaluationMethod.locale && data.evaluationMethod.locale.description || instance.i18next.language === form.settings.defaultLocale;"
                        }
                      ],
                      "width": 12
                    },
                    {
                      "components": [
                        {
                          "label": "Student Evaluation Languages",
                          "reorder": false,
                          "addAnother": "Add another",
                          "addAnotherPosition": "bottom",
                          "defaultOpen": false,
                          "layoutFixed": false,
                          "enableRowGroups": false,
                          "tableView": false,
                          "defaultValue": [
                            {}
                          ],
                          "key": "evaluationLanguages",
                          "type": "datagrid",
                          "customClass": "border-0",
                          "input": true,
                          "components": [
                            {
                              "label": "Language",
                              "hideLabel": true,
                              "widget": "choicesjs",
                              "tableView": true,
                              "dataSrc": "url",
                              "data": {
                                "url": "qa/teachingLanguages/?$select=id,name,alternateName&$expand=locale",
                                "headers": []
                              },
                              "validate": {
                                "required": true
                              },
                              "useExactSearch": true,
                              "selectThreshold": 0.3,
                              "template": "<span class='d-block pr-5 text-truncate'>{{ (item.locale && item.locale.name) || item.name }}</span>",
                              "key": "id",
                              "selectValues": "value",
                              "valueProperty": "id",
                              "lazyLoad": false,
                              "type": "select",
                              "indexeddb": {
                                "filter": {}
                              },
                              "input": true,
                              "hideOnChildrenHidden": false
                            }
                          ]
                        }
                      ],
                      "width": 6
                    }
                  ],
                  "type": "columns",
                  "input": false
                },
                {
                  "components": [
                    {
                      "label": "Student Evaluation Manners",
                      "reorder": false,
                      "addAnother": "Add another",
                      "addAnotherPosition": "bottom",
                      "defaultOpen": false,
                      "layoutFixed": false,
                      "enableRowGroups": false,
                      "tableView": false,
                      "defaultValue": [
                        {}
                      ],
                      "key": "courseEvaluations",
                      "type": "datagrid",
                      "customClass": "border-0",
                      "input": true,
                      "components": [
                        {
                          "columns": [
                            {
                              "components": [
                                {
                                  "label": "Manner",
                                  "widget": "choicesjs",
                                  "tableView": true,
                                  "dataSrc": "url",
                                  "data": {
                                    "url": "qa/evaluationTypes/?$select=id,name,alternateName&$expand=locale",
                                    "headers": []
                                  },
                                  "validate": {
                                    "required": true
                                  },
                                  "errorLabel": "Field",
                                  "useExactSearch": true,
                                  "selectThreshold": 0.3,
                                  "template": "<span class='d-block pr-5 text-truncate'>{{ (item.locale && item.locale.name) || item.name }}</span>",
                                  "key": "evaluationType",
                                  "selectValues": "value",
                                  "valueProperty": "id",
                                  "lazyLoad": false,
                                  "type": "select",
                                  "indexeddb": {
                                    "filter": {}
                                  },
                                  "input": true,
                                  "hideOnChildrenHidden": false
                                }
                              ],
                              "width": 8
                            },
                            {
                              "components": [
                                {
                                  "label": "Percentage",
                                  "tableView": true,
                                  "key": "percent",
                                  "type": "number",
                                  "input": true,
                                  "hideOnChildrenHidden": false,
                                  "validate": {
                                    "required": true,
                                    "min": 0,
                                    "max": 100,
                                    "custom": "const dataGrid = data.courseEvaluations || []; let percentSum = 0; for (let i = 0; i < dataGrid.length; i++) { const percentValue = dataGrid[i]['percent']; percentSum += parseFloat(percentValue); } valid = (percentSum === 100) ? true : 'Individual percentages must add up to 100.';"
                                  },
                                  "errorLabel": "Field"
                                }
                              ],
                              "width": 4
                            }
                          ],
                          "type": "columns",
                          "input": false
                        }
                      ]
                    }
                  ],
                  "width": 8
                }
              ]
            }
          ]
        }
      ]
    },
    {
      "collapsible": true,
      "title": "5. SUGGESTED BIBLIOGRAPHY",
      "key": "panel",
      "type": "panel",
      "label": "Panel",
      "input": false,
      "tableView": false,
      "collapsed": false,
      "components": [
        {
          "reorder": false,
          "label": "Suggested Bibliography",
          "hideLabel": false,
          "labelPosition": "top",
          "placeholder": "Fill in the suggested bibliography",
          "autoExpand": true,
          "tableView": true,
          "key": "bibliography",
          "type": "textarea",
          "input": true,
          "rows": 5,
          "defaultOpen": false,
          "layoutFixed": false,
          "enableRowGroups": false,
          "initEmpty": true,
          "validate": {
            "required": true
          }
        },
        {
          "reorder": false,
          "label": "Eudoxus",
          "hideLabel": false,
          "labelPosition": "top",
          "placeholder": "Fill in the available books in Eudoxus",
          "autoExpand": true,
          "tableView": true,
          "key": "eudoxus",
          "type": "textarea",
          "input": true,
          "rows": 5,
          "defaultOpen": false,
          "layoutFixed": false,
          "enableRowGroups": false,
          "initEmpty": true,
          "validate": {
            "required": true
          }
        }
      ]
    },
    {
      "collapsible": true,
      "title": "OTHER LANGUAGES",
      "key": "panel6",
      "type": "panel",
      "label": "Panel",
      "input": false,
      "tableView": false,
      "collapsed": false,
      "customConditional": "show = Boolean(data.locales && data.locales.length > 0);",
      "refreshOn":"locales",
      "components": [
        {
          "hideLabel": true,
          "reorder": false,
          "addAnother": "Add another",
          "addAnotherPosition": "bottom",
          "defaultOpen": false,
          "layoutFixed": false,
          "enableRowGroups": true,
          "initEmpty": false,
          "tableView": false,
          "key": "courseClass.department.locales",
          "type": "datagrid",
          "customClass": "border-0 mb-0",
          "disableAddingRemovingRows": true,
          "input": true,
          "defaultValue": [
            {}
          ],
          "components": [
            {
              "columns": [
                {
                  "components": [
                    {
                      "input": false,
                      "html": "<h5>{{instance.t('Language')}}: {{instance.t('en')}}</h5><br>",
                      "type": "content",
                      "refreshOn":"courseClass.department.locales"
                    }
                  ],
                  "width": 12
                },
                {
                  "components": [
                    {
                      "label": "Faculty Name",
                      "labelPosition": "top",
                      "disabled": true,
                      "key": "notes",
                      "type": "textfield",
                      "input": false
                    }
                  ],
                  "width": 4,
                  "size": "md"
                },
                {
                  "components": [
                    {
                      "label": "Department Name",
                      "labelPosition": "top",
                      "disabled": true,
                      "key": "name",
                      "type": "textfield",
                      "input": false
                    }
                  ],
                  "width": 4,
                  "size": "md"
                },
                {
                  "components": [
                    {
                      "label": "Course Title",
                      "autoExpand": false,
                      "tableView": true,
                      "type": "textfield",
                      "input": false,
                      "disabled": true,
                      "calculateValue": "const course = _.has(data, 'courseClass.course.locales') && data.courseClass.course.locales.find(locale => locale.inLanguage === row.inLanguage); value = course? course.name : '';"
                    }
                  ],
                  "width": 4
                },
                {
                  "components": [
                    {
                      "input": false,
                      "html": "The name of the school, course and department in English are drawn from the information system of the secretariats. Contact the secretariat to fill it out if necessary.",
                      "type": "content",
                      "customClass": "text-danger mt-2",
                      "customConditional": "const course = _.has(data, 'courseClass.course.locales') && data.courseClass.course.locales.find(locale => locale.inLanguage === row.inLanguage);show = !row.notes || !row.name || !course || !course.name;"
                    }
                  ],
                  "width": 12
                }
              ],
              "type": "columns",
              "input": false
            }
          ]
        },
        {
          "hideLabel": true,
          "reorder": false,
          "addAnother": "Add another",
          "addAnotherPosition": "bottom",
          "defaultOpen": false,
          "layoutFixed": false,
          "enableRowGroups": true,
          "initEmpty": false,
          "tableView": false,
          "key": "locales",
          "type": "datagrid",
          "customClass": "border-0",
          "disableAddingRemovingRows": true,
          "input": true,
          "defaultValue": [
            {}
          ],
          "components": [
            {
              "columns": [
                {
                  "components": [
                    {
                      "reorder": false,
                      "label": "Learning Outcomes",
                      "placeholder": "Please describe the learning outcomes of the course: Knowledge, skills and abilities acquired after the successful completion of the course.",
                      "labelPosition": "top",
                      "autoExpand": true,
                      "tableView": true,
                      "key": "learningOutcome",
                      "type": "textarea",
                      "input": true,
                      "rows": 5,
                      "defaultOpen": false,
                      "layoutFixed": false,
                      "enableRowGroups": false,
                      "initEmpty": true,
                      "defaultValue": [
                        {}
                      ]
                    }
                  ],
                  "width": 12,
                  "size": "md"
                },
                {
                  "components": [
                    {
                      "reorder": false,
                      "label": "Course Content",
                      "hideLabel": false,
                      "placeholder": "Please describe the course's content",
                      "labelPosition": "top",
                      "autoExpand": true,
                      "tableView": true,
                      "key": "content",
                      "type": "textarea",
                      "input": true,
                      "rows": 5,
                      "defaultOpen": false,
                      "layoutFixed": false,
                      "enableRowGroups": false,
                      "initEmpty": true,
                      "defaultValue": [
                        {}
                      ]
                    }
                  ],
                  "width": 12,
                  "size": "md"
                },
                {
                  "components": [
                    {
                      "label": "Prerequisites",
                      "autoExpand": false,
                      "tableView": true,
                      "key": "prerequisites",
                      "type": "textarea",
                      "input": true
                    }
                  ],
                  "width": 12
                }
              ],
              "type": "columns",
              "input": false
            }
          ]
        }
      ]
    },
    {
      "type": "button",
      "label": "Submit",
      "key": "submit",
      "input": false,
      "tableView": false
    }
  ]
}
